Data | Produto | Preço(R$)
10/01/2017 | Soja | 69.36
10/01/2017 | Soja | 64.48
13/01/2017 | Soja | 66.92
13/01/2017 | Soja | 69.17
13/01/2017 | Soja | 65.45
17/01/2017 | Soja | 73.27
17/01/2017 | Soja | 66.43
17/01/2017 | Soja | 73.27
17/01/2017 | Soja | 66.43
19/01/2017 | Soja | 69.36
19/01/2017 | Soja | 74.25
19/01/2017 | Soja | 66.43
19/01/2017 | Soja | 64.48
19/01/2017 | Soja | 69.36
19/01/2017 | Soja | 74.25
19/01/2017 | Soja | 66.43
19/01/2017 | Soja | 64.48
20/01/2017 | Soja | 69.36
20/01/2017 | Soja | 74.25
20/01/2017 | Soja | 64.48
20/01/2017 | Soja | 69.36
20/01/2017 | Soja | 74.25
20/01/2017 | Soja | 64.48
23/01/2017 | Soja | 70.73
24/01/2017 | Soja | 76.2
24/01/2017 | Soja | 67.41
24/01/2017 | Soja | 76.2
24/01/2017 | Soja | 67.41
24/01/2017 | Soja | 76.2
24/01/2017 | Soja | 67.41
27/01/2017 | Soja | 67.41
27/01/2017 | Soja | 71.02
27/01/2017 | Soja | 69.36
27/01/2017 | Soja | 67.41
27/01/2017 | Soja | 71.02
27/01/2017 | Soja | 69.36
27/01/2017 | Soja | 67.41
27/01/2017 | Soja | 71.02
27/01/2017 | Soja | 69.36
30/01/2017 | Soja | 66.43
31/01/2017 | Soja | 66.43
31/01/2017 | Soja | 67.41
31/01/2017 | Soja | 66.43
31/01/2017 | Soja | 67.41
02/02/2017 | Soja | 65.94
02/02/2017 | Soja | 70.14
03/02/2017 | Soja | 70.14
03/02/2017 | Soja | 71.32
03/02/2017 | Soja | 70.14
03/02/2017 | Soja | 71.32
03/02/2017 | Soja | 70.14
03/02/2017 | Soja | 71.32
06/02/2017 | Soja | 72.29
07/02/2017 | Soja | 68.39
07/02/2017 | Soja | 72.29
08/02/2017 | Soja | 65.94
08/02/2017 | Soja | 68.39
08/02/2017 | Soja | 66.43
10/02/2017 | Soja | 66.43
10/02/2017 | Soja | 70.34
10/02/2017 | Soja | 66.43
10/02/2017 | Soja | 70.34
10/02/2017 | Soja | 66.43
10/02/2017 | Soja | 70.34
13/02/2017 | Soja | 68.87
14/02/2017 | Soja | 67.41
14/02/2017 | Soja | 66.43
14/02/2017 | Soja | 66.43
15/02/2017 | Soja | 64.48
15/02/2017 | Soja | 67.41
15/02/2017 | Soja | 62.52
15/02/2017 | Soja | 68.39
15/02/2017 | Soja | 63.5
15/02/2017 | Soja | 66.43
16/02/2017 | Soja | 67.41
16/02/2017 | Soja | 67.9
16/02/2017 | Soja | 62.52
16/02/2017 | Soja | 68.39
17/02/2017 | Soja | 67.41
17/02/2017 | Soja | 67.9
17/02/2017 | Soja | 66.34
17/02/2017 | Soja | 67.41
17/02/2017 | Soja | 67.9
17/02/2017 | Soja | 66.34
17/02/2017 | Soja | 67.41
17/02/2017 | Soja | 67.9
17/02/2017 | Soja | 66.34
20/02/2017 | Soja | 66.34
21/02/2017 | Soja | 69.36
21/02/2017 | Soja | 72.29
21/02/2017 | Soja | 66.43
22/02/2017 | Soja | 63.01
22/02/2017 | Soja | 69.36
22/02/2017 | Soja | 72.29
22/02/2017 | Soja | 66.43
24/02/2017 | Soja | 68.39
24/02/2017 | Soja | 68.39
24/02/2017 | Soja | 68.39
24/02/2017 | Soja | 68.39
24/02/2017 | Soja | 68.39
24/02/2017 | Soja | 68.39
24/02/2017 | Soja | 68.39
02/03/2017 | Soja | 61.55
02/03/2017 | Soja | 65.45
02/03/2017 | Soja | 63.5
03/03/2017 | Soja | 61.55
03/03/2017 | Soja | 65.45
03/03/2017 | Soja | 62.52
03/03/2017 | Soja | 61.55
03/03/2017 | Soja | 65.45
03/03/2017 | Soja | 62.52
03/03/2017 | Soja | 61.55
03/03/2017 | Soja | 65.45
03/03/2017 | Soja | 62.52
06/03/2017 | Soja | 62.03
07/03/2017 | Soja | 67.18
07/03/2017 | Soja | 62.03
07/03/2017 | Soja | 62.33
09/03/2017 | Soja | 61.35
09/03/2017 | Soja | 65.65
09/03/2017 | Soja | 58.62
09/03/2017 | Soja | 61.35
09/03/2017 | Soja | 65.65
09/03/2017 | Soja | 58.62
10/03/2017 | Soja | 61.35
10/03/2017 | Soja | 65.65
10/03/2017 | Soja | 62.52
10/03/2017 | Soja | 61.35
10/03/2017 | Soja | 65.65
10/03/2017 | Soja | 62.52
13/03/2017 | Soja | 61.55
14/03/2017 | Soja | 61.55
14/03/2017 | Soja | 62.33
16/03/2017 | Soja | 59.79
16/03/2017 | Soja | 65.45
17/03/2017 | Soja | 59.79
17/03/2017 | Soja | 65.45
17/03/2017 | Soja | 59.79
17/03/2017 | Soja | 65.45
17/03/2017 | Soja | 59.79
17/03/2017 | Soja | 65.45
17/03/2017 | Soja | 59.79
17/03/2017 | Soja | 65.45
20/03/2017 | Soja | 59.2
21/03/2017 | Soja | 57.64
21/03/2017 | Soja | 60.08
24/03/2017 | Soja | 62.52
24/03/2017 | Soja | 59.59
24/03/2017 | Soja | 62.52
24/03/2017 | Soja | 59.59
24/03/2017 | Soja | 62.52
24/03/2017 | Soja | 59.59
27/03/2017 | Soja | 68.39
27/03/2017 | Soja | 68.39
29/03/2017 | Soja | 56.17
29/03/2017 | Soja | 65.45
29/03/2017 | Soja | 55.68
29/03/2017 | Soja | 52.75
29/03/2017 | Soja | 56.66
30/03/2017 | Soja | 56.17
30/03/2017 | Soja | 60.57
30/03/2017 | Soja | 55.68
31/03/2017 | Soja | 60.57
31/03/2017 | Soja | 60.57
31/03/2017 | Soja | 60.57
03/04/2017 | Soja | 55.68
03/04/2017 | Soja | 55.68
05/04/2017 | Soja | 53.24
05/04/2017 | Soja | 54.71
05/04/2017 | Soja | 52.75
05/04/2017 | Soja | 57.64
05/04/2017 | Soja | 56.17
05/04/2017 | Soja | 56.66
05/04/2017 | Soja | 53.24
05/04/2017 | Soja | 54.71
05/04/2017 | Soja | 52.75
05/04/2017 | Soja | 57.64
05/04/2017 | Soja | 56.17
05/04/2017 | Soja | 56.66
